# min: -180 max: 180 x: psi y: phi
3.3202422 4.5211301 5.9026814 5.9026814 5.6594024 6.3185697 6.3185697 5.4867926 5.0002346 5.6594024 5.9026814 5.3529067 5.1510239 5.4867926 5.6594024 5.3529067 5.6594024 5.3529067 4.6186419 4.5519061 4.3410673 4.3192468 4.0618496 3.1896081 3.3202422
1.7267572 2.504905 3.8326886 5.2435136 6.3185697 5.6594024 5.4867926 5.0002346 4.6550159 5.2435136 5.0002346 5.1510239 4.9370184 4.0618496 3.8927388 4.0618496 3.795754 3.3243101 2.8785646 2.7902496 2.9844725 2.6747427 2.3862095 1.9148468 1.7267572
1.6978493 2.2371325 3.5037608 4.7796001 5.1510239 5.0002346 4.7351351 4.5519061 4.2778511 4.7796001 3.7201293 3.9141695 3.0428183 2.7088749 2.8427615 2.793611 2.7001584 2.633347 2.3409514 2.1423609 2.1492312 2.0342975 1.8705491 1.7191174 1.6978493
2.1249683 2.4323859 3.6186838 4.4117374 4.8276258 4.2581773 4.008481 4.3872442 3.9958489 3.5737429 3.3003066 2.830091 2.4097419 1.8792976 2.0197372 2.3627427 2.4241354 2.4079666 2.3048098 1.8286227 1.787542 1.6679423 1.6948717 1.9036533 2.1249683
2.2609317 2.7074137 3.5494971 4.4918561 4.7796001 4.3192468 3.8927388 3.9594743 3.5092909 2.9595163 2.6516888 2.1655746 1.7210888 1.3980671 1.6099118 2.4168954 2.9003131 2.780277 2.350539 1.6340635 1.5486912 1.4135787 1.702207 2.0746076 2.2609317
2.0645232 2.8727674 3.8139372 4.6937394 4.298192 4.5519061 4.152019 3.4928515 3.0796719 2.543628 2.0974083 1.7052214 1.0927913 0.77930826 1.5101664 2.5639687 2.9662204 2.5514567 1.9698939 1.3779895 1.2893331 1.3974087 1.6506383 2.0409908 2.0645232
1.6825773 2.6887293 4.298192 5.3529067 4.9370184 4.8798323 4.2391281 3.6672652 2.9684715 2.2021713 1.700569 1.2841358 0.73447037 1.084533 2.2311623 2.2878866 1.941943 1.7304707 1.583771 1.1745386 1.3270315 1.4205465 1.6424173 1.731905 1.6825773
1.8770984 3.2925143 5.0002346 5.3529067 5.4867926 5.6594024 4.9370184 4.2027535 2.7327588 0.97375834 0.70119619 0.87461346 1.2264053 2.516474 3.5261931 3.2477734 2.5143538 2.1721189 2.1069915 1.6165105 1.4013691 1.287413 1.4236313 1.5766333 1.8770984
3.6390245 4.8276258 5.4867926 6.3185697 6.3185697 5.2435136 4.8798323 4.1360178 2.0843472 -0.0 0.41744411 1.3194733 2.8708475 4.220665 5.2435136 4.9370184 4.8276258 4.5211301 4.1684585 2.8923132 1.7977118 1.2664244 1.5676106 2.4388826 3.6390245
5.3529067 5.6594024 6.3185697 6.3185697 5.9026814 6.3185697 5.2435136 4.298192 2.6789045 1.7750677 2.5755749 4.1853604 5.3529067 6.3185697 6.3185697 6.3185697 6.3185697 5.4867926 5.1510239 4.0213847 2.5826476 2.1538553 3.1863561 4.3872442 5.3529067
6.3185697 6.3185697 6.3185697 6.3185697 6.3185697 6.3185697 5.1510239 4.2581773 3.9594743 4.6550159 5.1510239 5.4867926 6.3185697 6.3185697 6.3185697 6.3185697 6.3185697 5.6594024 5.4867926 4.6186419 4.0213847 4.7351351 5.2435136 5.3529067 6.3185697
6.3185697 6.3185697 6.3185697 6.3185697 6.3185697 6.3185697 5.9026814 4.8798323 5.0709047 6.3185697 6.3185697 6.3185697 6.3185697 6.3185697 6.3185697 6.3185697 6.3185697 6.3185697 5.0709047 5.4867926 5.9026814 6.3185697 6.3185697 6.3185697 6.3185697
6.3185697 6.3185697 6.3185697 6.3185697 6.3185697 5.6594024 5.9026814 6.3185697 5.9026814 6.3185697 6.3185697 6.3185697 6.3185697 6.3185697 6.3185697 6.3185697 6.3185697 5.6594024 5.6594024 5.6594024 5.6594024 6.3185697 6.3185697 6.3185697 6.3185697
6.3185697 6.3185697 6.3185697 6.3185697 6.3185697 6.3185697 5.9026814 5.9026814 6.3185697 6.3185697 6.3185697 6.3185697 6.3185697 6.3185697 6.3185697 5.3529067 4.6186419 4.4918561 5.1510239 6.3185697 5.6594024 6.3185697 6.3185697 6.3185697 6.3185697
6.3185697 6.3185697 6.3185697 6.3185697 4.463944 4.5843468 5.1510239 5.9026814 6.3185697 5.9026814 6.3185697 6.3185697 5.9026814 6.3185697 4.7351351 3.8047767 3.2623193 3.8619628 5.0002346 4.9370184 5.9026814 6.3185697 6.3185697 6.3185697 6.3185697
5.4867926 5.6594024 4.3872442 3.567589 3.1928778 3.3284056 5.3529067 6.3185697 6.3185697 6.3185697 6.3185697 5.9026814 5.2435136 3.9594743 2.050684 1.003207 1.6360185 3.3284056 4.6550159 5.0002346 6.3185697 6.3185697 6.3185697 6.3185697 5.4867926
4.152019 4.1204324 3.6529789 3.3843601 3.0583365 3.4073515 4.4918561 5.4867926 4.6186419 4.8798323 4.7351351 4.1853604 2.9914627 1.3604152 0.73066872 0.77039248 1.9078745 3.2734654 4.4117374 5.3529067 5.1510239 6.3185697 5.6594024 5.0709047 4.152019
4.1853604 4.7796001 4.7796001 5.6594024 4.6550159 4.6937394 5.2435136 4.6186419 3.7694724 3.8047767 3.8823035 3.0402706 2.0183468 1.7065965 2.1486554 3.0689094 4.008481 4.2027535 4.6186419 4.220665 5.3529067 5.2435136 5.1510239 4.4117374 4.1853604
5.2435136 5.6594024 6.3185697 6.3185697 6.3185697 6.3185697 5.9026814 5.3529067 5.1510239 5.2435136 4.4918561 3.4215813 3.3798656 4.0759678 4.6186419 5.3529067 5.2435136 6.3185697 5.1510239 5.3529067 5.9026814 5.9026814 5.4867926 5.1510239 5.2435136
5.9026814 6.3185697 6.3185697 6.3185697 6.3185697 6.3185697 6.3185697 6.3185697 6.3185697 5.6594024 5.1510239 5.0709047 6.3185697 5.6594024 6.3185697 6.3185697 5.9026814 6.3185697 5.9026814 5.9026814 5.4867926 5.9026814 6.3185697 6.3185697 5.9026814
6.3185697 6.3185697 6.3185697 6.3185697 6.3185697 5.9026814 6.3185697 5.9026814 5.9026814 5.0002346 5.6594024 5.9026814 5.9026814 6.3185697 6.3185697 6.3185697 6.3185697 6.3185697 6.3185697 6.3185697 6.3185697 6.3185697 6.3185697 6.3185697 6.3185697
6.3185697 6.3185697 6.3185697 6.3185697 6.3185697 6.3185697 6.3185697 6.3185697 6.3185697 4.7796001 5.6594024 6.3185697 6.3185697 5.6594024 6.3185697 6.3185697 6.3185697 6.3185697 6.3185697 5.9026814 5.9026814 6.3185697 6.3185697 6.3185697 6.3185697
6.3185697 6.3185697 6.3185697 6.3185697 6.3185697 5.9026814 6.3185697 6.3185697 6.3185697 5.9026814 6.3185697 6.3185697 6.3185697 6.3185697 6.3185697 6.3185697 6.3185697 5.9026814 6.3185697 6.3185697 6.3185697 5.9026814 6.3185697 6.3185697 6.3185697
6.3185697 5.4867926 6.3185697 6.3185697 6.3185697 6.3185697 6.3185697 6.3185697 6.3185697 5.9026814 5.3529067 5.6594024 6.3185697 6.3185697 6.3185697 6.3185697 6.3185697 6.3185697 6.3185697 6.3185697 5.9026814 5.4867926 5.9026814 5.3529067 6.3185697
3.3202422 4.5211301 5.9026814 5.9026814 5.6594024 6.3185697 6.3185697 5.4867926 5.0002346 5.6594024 5.9026814 5.3529067 5.1510239 5.4867926 5.6594024 5.3529067 5.6594024 5.3529067 4.6186419 4.5519061 4.3410673 4.3192468 4.0618496 3.1896081 3.3202422
