# min: -180 max: 180 x: chi1 y: phi
3.758215 3.5305212 4.2743359 4.7474098 4.8812962 5.2971849 4.8812962 5.2971849 5.7130728 5.7130728 5.7130728 5.7130728 5.7130728 5.7130728 4.4654078 3.0266709 2.7879546 3.4563527 5.2971849 5.7130728 5.7130728 5.7130728 5.2971849 4.3947382 3.758215
1.80247 1.6993133 2.7523882 4.013145 5.0539055 4.4654078 4.4654078 3.7817471 4.1296387 4.4654078 5.7130728 5.0539055 4.8812962 4.6380172 3.9156334 2.1814103 1.1792159 1.6217183 3.4425592 4.7474098 5.7130728 5.2971849 3.8317761 2.9440005 1.80247
1.2603662 1.3892465 2.5648582 3.8863595 4.2221289 3.7137501 3.514936 2.1227109 1.3769112 2.372066 3.390352 5.2971849 4.8812962 4.545527 3.3658588 1.8399537 0.9381364 1.4147047 2.8209038 4.7474098 5.7130728 5.0539055 3.5629613 2.267271 1.2603662
1.2061579 1.5793179 2.8306601 3.4704711 4.4654078 3.7817471 2.5939746 1.1658787 0.47436774 1.2618041 3.1067896 4.4654078 4.545527 4.6380172 3.8863595 2.128787 1.4856068 1.9067446 3.1992798 4.6380172 4.8812962 5.2971849 4.1296387 2.0734079 1.2061579
1.1909344 1.6151965 2.8160846 3.514936 3.9788496 3.5629613 2.2868166 0.7943843 0.27680433 1.1695709 3.1726089 4.4654078 4.545527 4.3315215 3.6926954 2.3540196 1.8315226 2.5680246 4.013145 4.8812962 5.7130728 5.7130728 3.9788496 1.8600993 1.1909344
1.1435981 1.6336393 2.5808594 3.6151681 4.0495195 3.4290752 2.1797459 0.58037937 0.25976244 1.3311707 3.3658588 4.545527 4.7474098 4.4654078 3.9788496 2.6642301 1.9206117 2.4607515 3.6926954 4.6380172 5.7130728 5.7130728 3.6723542 1.8952558 1.1435981
0.99974591 1.3790953 2.2769642 3.3086727 4.1296387 3.5305212 2.1212015 0.57462662 0.34743929 1.4335742 3.579864 4.3315215 4.8812962 4.2221289 4.0882425 2.33006 1.45504 2.0330341 3.4290752 4.4654078 5.0539055 4.6380172 3.8863595 1.8739158 0.99974591
0.75879699 0.95494896 2.1272621 3.1306338 4.013145 2.8982642 1.5541897 0.303675 0.44386309 1.6485384 3.758215 4.545527 4.7474098 4.3947382 3.8317761 2.1272621 1.1008246 1.1522313 2.1004586 3.8863595 4.6380172 4.6380172 3.2768071 1.4898026 0.75879699
-0.0 0.49899018 1.7378373 2.9935131 3.4849296 2.9037938 1.1342137 0.19144587 0.51112413 1.922774 3.8062403 4.2221289 5.2971849 4.4654078 3.7817471 2.1489701 1.2211046 1.0557704 2.109261 3.8584476 4.3315215 4.1741033 2.6040027 0.68246436 -0.0
1.440806 1.8983673 3.0690413 4.1741033 5.0539055 4.1741033 3.0690413 2.2483418 2.4271946 3.1992798 4.6380172 5.7130728 5.7130728 5.7130728 4.6380172 3.8317761 2.8160846 3.047482 4.545527 5.2971849 5.7130728 5.7130728 3.6526804 2.0582869 1.440806
3.8584476 3.9464095 5.7130728 5.7130728 5.7130728 5.2971849 5.7130728 3.9464095 4.4654078 4.7474098 5.7130728 5.7130728 5.7130728 5.7130728 5.7130728 5.0539055 5.0539055 5.7130728 5.7130728 5.7130728 5.7130728 5.7130728 5.7130728 4.8812962 3.8584476
5.2971849 5.2971849 5.7130728 5.7130728 5.7130728 5.7130728 5.7130728 5.2971849 5.2971849 5.7130728 5.7130728 5.7130728 5.7130728 5.7130728 5.7130728 5.7130728 4.7474098 5.7130728 5.7130728 5.7130728 5.7130728 5.7130728 5.7130728 5.7130728 5.2971849
5.7130728 5.7130728 5.7130728 5.7130728 5.7130728 5.7130728 5.7130728 5.2971849 5.7130728 5.7130728 5.7130728 5.7130728 5.7130728 5.7130728 5.7130728 5.2971849 4.8812962 5.2971849 5.7130728 5.7130728 5.7130728 5.7130728 5.7130728 5.7130728 5.7130728
5.7130728 5.7130728 5.7130728 5.7130728 5.7130728 5.7130728 5.7130728 4.7474098 5.2971849 5.7130728 5.7130728 5.7130728 5.7130728 5.7130728 5.2971849 4.8812962 4.8812962 5.0539055 5.7130728 5.7130728 5.7130728 5.7130728 5.7130728 5.7130728 5.7130728
5.7130728 4.7474098 4.8812962 5.7130728 5.7130728 5.7130728 5.2971849 4.3947382 4.0882425 4.2221289 5.7130728 5.7130728 5.7130728 5.7130728 4.4654078 3.1813681 3.6926954 4.7474098 5.0539055 5.7130728 5.7130728 5.7130728 5.7130728 5.7130728 5.7130728
4.3315215 2.9380889 3.2084405 4.3947382 5.2971849 5.7130728 4.0495195 2.1181941 1.6081035 2.2446268 3.5629613 4.8812962 5.7130728 5.7130728 5.7130728 3.5465221 3.047482 4.545527 5.0539055 5.2971849 5.7130728 5.7130728 5.7130728 5.7130728 4.3315215
3.9464095 2.8609185 2.6280746 3.7355707 4.6380172 4.7474098 3.0914042 1.6751784 1.0805296 1.4565318 2.9807465 4.7474098 5.7130728 5.7130728 5.7130728 5.0539055 5.2971849 5.0539055 5.7130728 5.7130728 5.7130728 5.7130728 5.7130728 5.7130728 3.9464095
3.2768071 3.2367921 3.8863595 4.545527 5.0539055 4.7474098 4.0882425 2.7147455 1.9195336 2.1004586 3.8584476 5.7130728 5.7130728 5.7130728 5.7130728 5.7130728 5.7130728 5.7130728 5.7130728 5.0539055 5.7130728 5.7130728 5.7130728 5.7130728 3.2768071
4.8812962 5.0539055 5.2971849 5.2971849 5.7130728 5.7130728 4.8812962 4.013145 3.390352 3.9464095 5.2971849 5.7130728 5.7130728 5.7130728 5.7130728 5.7130728 5.7130728 5.7130728 5.7130728 5.7130728 5.7130728 5.7130728 5.7130728 5.7130728 4.8812962
5.7130728 5.7130728 5.7130728 5.7130728 5.7130728 5.7130728 5.0539055 5.0539055 5.0539055 5.7130728 5.7130728 5.7130728 5.7130728 5.7130728 5.7130728 5.7130728 5.7130728 5.7130728 5.7130728 5.7130728 5.7130728 5.7130728 5.7130728 5.7130728 5.7130728
5.7130728 5.2971849 5.7130728 5.7130728 5.7130728 5.7130728 5.2971849 5.2971849 5.7130728 5.7130728 5.7130728 5.7130728 5.7130728 5.7130728 5.7130728 5.7130728 5.7130728 5.7130728 5.7130728 5.7130728 5.7130728 5.7130728 5.7130728 5.7130728 5.7130728
5.7130728 5.7130728 5.7130728 5.7130728 5.7130728 5.7130728 5.7130728 5.0539055 5.7130728 5.7130728 5.7130728 5.7130728 5.7130728 5.7130728 5.7130728 5.7130728 5.7130728 5.7130728 5.7130728 5.7130728 5.7130728 5.7130728 5.7130728 5.7130728 5.7130728
5.7130728 5.0539055 5.7130728 5.7130728 5.7130728 5.7130728 5.7130728 4.8812962 5.7130728 5.7130728 5.7130728 5.7130728 5.7130728 5.7130728 5.7130728 5.7130728 5.7130728 5.7130728 5.7130728 5.7130728 5.7130728 5.7130728 5.7130728 5.7130728 5.7130728
4.8812962 5.0539055 4.8812962 5.7130728 5.7130728 5.7130728 5.7130728 5.7130728 5.7130728 5.7130728 5.7130728 5.7130728 5.7130728 5.7130728 5.7130728 5.2971849 5.2971849 5.2971849 5.7130728 5.7130728 5.7130728 5.7130728 5.7130728 5.7130728 4.8812962
3.758215 3.5305212 4.2743359 4.7474098 4.8812962 5.2971849 4.8812962 5.2971849 5.7130728 5.7130728 5.7130728 5.7130728 5.7130728 5.7130728 4.4654078 3.0266709 2.7879546 3.4563527 5.2971849 5.7130728 5.7130728 5.7130728 5.2971849 4.3947382 3.758215
