# num tmscore ddfire dope goap rf_ha_srs rwplus
1 0.543100 -94.460000 -4494.459961 -5156.630000 1973.540000 -7278.675328
2 0.800600 -97.440000 -4744.254395 -5801.400000 1749.220000 -7643.244227
3 0.566400 -96.640000 -4601.888184 -5668.980000 1709.520000 -7528.391392
4 0.315800 -100.040000 -4889.702148 -5898.760000 1612.110000 -7744.325270
5 0.415200 -94.910000 -4523.980957 -5146.400000 1902.640000 -7376.781386
6 0.531800 -94.030000 -4680.543945 -5484.130000 1739.470000 -7466.753362
7 0.569000 -94.910000 -4609.704102 -5446.450000 1776.080000 -7397.028882
8 0.377500 -96.280000 -4466.703125 -5062.210000 1992.910000 -7310.956102
9 0.524600 -92.520000 -4641.854004 -4748.290000 1759.630000 -7526.733698
10 0.503900 -94.600000 -4505.999023 -4802.110000 2161.160000 -7311.380719
11 0.531300 -89.390000 -4288.260254 -4532.710000 1918.370000 -6973.160642
12 0.502300 -93.440000 -4554.159668 -5296.470000 1708.880000 -7370.656825
13 0.518500 -93.840000 -4640.798828 -5530.490000 1703.210000 -7455.476282
14 0.311600 -94.040000 -4639.161621 -5757.820000 1942.590000 -7541.991476
15 0.625900 -94.970000 -4541.108398 -5338.450000 1825.040000 -7342.254539
16 0.584000 -93.510000 -4487.978516 -5093.380000 1843.910000 -7225.823154
17 0.541000 -95.140000 -4563.067871 -5272.780000 1790.600000 -7405.258300
18 0.517500 -92.170000 -4478.729980 -4376.810000 1954.280000 -7239.081702
19 0.329400 -99.660000 -4896.100586 -5918.930000 1450.490000 -7732.872890
20 0.530500 -92.500000 -4468.199219 -4459.080000 2168.450000 -7230.057684
21 0.445700 -94.660000 -4523.112305 -4843.710000 1918.000000 -7431.708055
22 0.517500 -92.380000 -4484.035156 -5612.300000 1704.730000 -7239.308799
23 0.580900 -94.040000 -4470.619141 -5501.970000 1743.660000 -7213.163333
24 0.534200 -92.470000 -4458.862793 -5058.690000 1890.040000 -7207.256143
25 0.563000 -94.190000 -4515.683594 -4789.180000 1848.670000 -7232.872916
26 0.437200 -94.180000 -4565.405273 -4742.200000 2046.210000 -7392.367293
27 0.583200 -95.830000 -4798.519531 -5616.520000 1781.740000 -7687.860432
28 0.451300 -95.630000 -4617.621582 -5762.580000 1609.690000 -7512.248090
29 0.471300 -94.320000 -4448.745117 -4938.850000 1933.890000 -7347.310713
30 0.498800 -94.720000 -4542.395996 -5226.600000 1764.770000 -7289.742696
31 0.559700 -94.860000 -4581.690430 -5238.910000 1891.660000 -7378.669271
32 0.589600 -96.140000 -4717.373535 -6039.580000 1542.990000 -7594.859938
33 0.599800 -94.060000 -4606.382324 -5221.620000 1779.390000 -7377.153270
34 0.522800 -96.270000 -4579.706055 -5472.430000 1790.060000 -7439.878582
35 0.474600 -93.970000 -4589.151855 -5597.690000 1870.690000 -7391.895482
36 0.548300 -94.220000 -4658.663086 -5622.080000 1636.630000 -7401.634049
37 0.440900 -91.790000 -4474.713379 -5370.660000 1839.080000 -7288.973015
38 0.419800 -93.030000 -4391.055176 -4730.260000 2304.510000 -7307.938316
39 0.594100 -93.910000 -4495.401855 -5510.580000 1925.140000 -7261.221220
40 0.559800 -95.190000 -4696.871094 -4885.130000 1771.500000 -7550.607497
41 0.640800 -96.010000 -4677.702637 -5119.780000 1818.660000 -7500.095962
42 0.460700 -93.240000 -4640.336426 -5276.210000 1660.820000 -7478.027540
43 0.680200 -96.210000 -4728.629883 -5604.530000 1651.270000 -7529.487023
44 0.651500 -95.870000 -4726.947754 -6004.440000 1643.210000 -7618.223225
45 0.310900 -95.070000 -4514.352539 -4778.900000 1775.410000 -7237.533881
46 0.363400 -92.650000 -4486.361816 -3961.470000 2232.480000 -7246.432664
47 0.473200 -93.010000 -4502.120605 -4960.420000 1757.750000 -7274.749951
48 0.583100 -93.200000 -4448.642578 -4794.910000 1753.740000 -7154.836752
49 0.608000 -95.160000 -4732.534668 -5863.480000 1574.280000 -7574.689154
50 0.319200 -98.190000 -4797.432617 -5928.200000 1597.070000 -7666.454827
51 0.421000 -88.770000 -4162.731934 -4342.510000 1839.360000 -6914.582786
52 0.699800 -99.570000 -4865.617676 -5704.600000 1509.840000 -7724.225578
53 0.463500 -96.050000 -4689.350098 -5514.740000 1834.970000 -7588.432088
54 0.361000 -98.870000 -4770.055664 -5072.670000 1598.250000 -7576.847799
55 0.342500 -90.870000 -4320.781250 -4400.600000 1762.150000 -7090.250822
56 0.619500 -93.240000 -4551.687500 -5339.330000 1995.210000 -7375.546817
57 0.407000 -92.700000 -4563.284180 -4978.550000 1846.690000 -7456.743926
58 0.681500 -95.100000 -4638.918945 -5427.360000 1681.320000 -7467.720577
59 0.562300 -95.930000 -4525.430176 -5401.900000 1939.490000 -7385.886127
60 0.542000 -90.620000 -4435.025391 -5052.560000 1668.150000 -7098.935228
61 0.534900 -94.900000 -4687.812500 -5480.570000 1588.610000 -7419.404272
62 0.309000 -93.520000 -4469.675781 -4664.370000 1634.400000 -7301.438646
63 0.529400 -95.590000 -4694.125488 -5622.840000 1695.390000 -7543.281729
64 0.651900 -95.780000 -4750.160156 -5607.050000 1834.450000 -7601.098774
65 0.528300 -92.550000 -4527.071777 -5004.950000 1836.270000 -7312.622723
66 0.481600 -92.110000 -4517.478516 -5105.020000 1758.280000 -7299.005062
67 0.555600 -95.520000 -4661.849121 -5188.350000 1891.640000 -7511.952778
68 0.607700 -96.930000 -4741.799316 -6154.620000 1718.460000 -7642.833143
69 0.627700 -93.160000 -4465.357422 -5156.620000 1862.140000 -7128.453208
70 0.353000 -96.480000 -4657.032715 -5764.130000 1662.010000 -7472.850962
71 0.405100 -96.780000 -4725.088379 -5815.750000 1763.450000 -7635.003232
72 0.474700 -93.570000 -4522.325684 -4836.030000 2094.750000 -7365.119338
73 0.424200 -91.780000 -4312.018555 -4474.110000 2344.670000 -7210.354251
74 0.305300 -92.070000 -4484.321289 -4726.540000 1877.500000 -7227.038021
75 0.352700 -94.070000 -4427.305176 -4564.990000 2122.120000 -7284.008228
76 0.550500 -94.370000 -4609.938965 -5761.860000 1471.840000 -7476.426424
77 0.562800 -97.210000 -4681.576660 -5276.210000 1614.960000 -7554.603365
78 0.540500 -94.380000 -4624.683594 -5445.770000 1654.830000 -7395.161712
79 0.345400 -92.760000 -4495.506348 -4555.020000 1727.810000 -7384.750100
80 0.385700 -90.180000 -4238.708984 -4428.250000 1826.660000 -6894.315655
81 0.478300 -92.860000 -4518.314941 -5191.020000 1827.370000 -7308.236699
82 0.363800 -96.600000 -4702.706055 -5588.960000 1753.930000 -7643.793391
83 0.526500 -92.530000 -4543.879395 -4452.710000 2105.000000 -7267.620139
84 0.518300 -89.480000 -4333.355469 -4517.420000 2073.750000 -7095.485462
85 0.595100 -92.980000 -4564.106445 -5193.310000 1610.180000 -7315.895599
86 0.379800 -91.010000 -4500.813965 -5244.700000 1867.500000 -7312.393542
87 0.492500 -89.070000 -4356.608398 -3864.000000 2122.420000 -7087.900239
88 0.537200 -95.240000 -4561.519531 -5453.550000 1876.100000 -7352.153139
89 0.418500 -96.970000 -4589.011719 -5188.540000 1863.520000 -7466.291120
90 0.549700 -94.520000 -4637.327637 -5537.760000 1788.330000 -7474.034266
91 0.545400 -94.390000 -4563.945312 -5093.570000 1940.110000 -7394.964220
92 0.320900 -99.970000 -4865.375000 -5952.750000 1783.130000 -7767.995658
93 0.611600 -93.210000 -4486.637695 -4895.160000 1900.990000 -7173.075104
94 0.415900 -97.350000 -4742.520996 -5654.570000 1941.070000 -7654.624147
95 0.427100 -92.980000 -4443.791992 -5247.570000 1875.740000 -7257.360503
96 0.345700 -90.780000 -4339.010742 -4971.140000 1682.880000 -7122.213195
97 0.306300 -94.660000 -4637.970703 -5402.770000 1910.480000 -7542.068183
98 0.587100 -95.780000 -4630.743652 -4819.390000 1780.330000 -7448.877022
99 0.591900 -94.480000 -4519.104492 -5047.970000 1843.490000 -7365.206190
100 0.321300 -97.750000 -4782.434570 -6081.370000 1798.680000 -7647.776071
