# num tmscore ddfire dope goap rf_ha_srs rwplus
1 0.786500 -128.540000 -6119.285645 -8982.270000 1707.140000 -10104.545242
2 0.728300 -127.010000 -6066.160156 -8053.520000 1913.900000 -10053.453357
3 0.705200 -129.870000 -6244.542480 -9075.870000 1681.370000 -10183.560571
4 0.698700 -127.310000 -6113.440918 -8113.260000 1840.980000 -9995.730691
5 0.716100 -127.080000 -6205.027832 -8484.850000 1814.370000 -10032.689308
6 0.702500 -127.570000 -6167.671875 -8348.360000 1612.770000 -10029.043952
7 0.678600 -123.880000 -6030.567383 -8257.940000 1702.800000 -9787.936352
8 0.723500 -121.500000 -5889.034180 -7893.980000 1926.370000 -9662.028688
9 0.695600 -127.420000 -6094.128906 -8281.450000 1801.480000 -9935.983485
10 0.786300 -122.290000 -5903.800781 -8646.140000 1561.570000 -9629.929854
11 0.605500 -120.430000 -5910.711914 -8382.290000 1532.430000 -9643.851798
12 0.517400 -120.560000 -5781.704590 -7382.630000 1898.000000 -9478.077707
13 0.646500 -122.460000 -5907.760742 -7943.610000 1858.180000 -9717.757040
14 0.661000 -121.350000 -5978.320312 -8460.340000 1604.640000 -9723.980807
15 0.710800 -128.180000 -6159.578613 -8926.040000 1622.800000 -10084.653525
16 0.739600 -123.790000 -6000.920410 -8393.950000 1629.990000 -9924.751682
17 0.608800 -122.050000 -5983.078613 -7354.600000 1761.570000 -9689.312142
18 0.715900 -125.060000 -5995.594727 -9315.150000 1587.950000 -9972.453112
19 0.737600 -127.660000 -6094.550781 -8549.070000 1750.640000 -9929.767146
20 0.640000 -123.310000 -6063.381836 -7659.690000 1829.550000 -9867.669520
21 0.703900 -128.450000 -6126.739258 -8784.180000 1809.640000 -10033.633350
22 0.623000 -124.660000 -6027.141113 -8789.410000 1639.770000 -9791.629133
23 0.556700 -125.410000 -6209.339355 -8725.710000 1542.370000 -10162.453812
24 0.704400 -126.050000 -6152.660156 -7920.390000 1836.960000 -10049.379338
25 0.724000 -124.030000 -6046.682129 -8083.050000 1641.770000 -9904.268065
26 0.551800 -120.040000 -5840.235352 -7656.980000 1799.290000 -9550.304317
27 0.696900 -124.780000 -5982.578613 -7739.410000 1875.580000 -9845.417589
28 0.552200 -120.000000 -5633.203613 -7583.520000 1866.890000 -9288.003637
29 0.748100 -124.460000 -5938.317871 -8489.160000 1633.760000 -9830.430185
30 0.664800 -125.750000 -6074.942871 -8741.730000 1440.140000 -9903.771469
31 0.675000 -127.190000 -6083.762695 -7948.480000 1820.080000 -10007.029681
32 0.679300 -116.540000 -5661.140137 -7006.140000 2092.430000 -9471.845663
33 0.411700 -112.230000 -5170.084473 -6389.940000 2237.690000 -8700.763168
34 0.705200 -123.410000 -5927.885254 -7444.290000 1858.150000 -9729.435973
35 0.667600 -121.570000 -5935.482422 -7968.490000 1637.840000 -9685.546244
36 0.727500 -128.250000 -6172.331543 -8753.280000 1698.920000 -9978.746656
37 0.695300 -129.040000 -6214.209473 -8316.970000 1533.830000 -10026.005873
38 0.621300 -120.700000 -5825.188477 -7263.930000 2080.490000 -9587.196581
39 0.469900 -127.760000 -6107.831055 -7700.980000 1622.160000 -9973.944695
40 0.613100 -123.590000 -5871.837891 -7991.370000 1603.780000 -9512.167367
41 0.440900 -116.340000 -5537.499023 -6772.290000 1544.190000 -9157.309078
42 0.749800 -124.880000 -6149.179199 -7951.010000 1776.570000 -10045.175423
43 0.761400 -127.450000 -6170.878418 -8390.090000 1814.980000 -10088.892921
44 0.692200 -125.630000 -6001.877930 -9321.270000 1457.510000 -9897.315326
45 0.695800 -119.940000 -5740.489746 -7968.060000 1717.590000 -9501.922873
46 0.712500 -126.240000 -6255.530273 -8040.310000 1627.890000 -10049.500531
47 0.621300 -118.730000 -5703.307129 -7831.670000 1952.670000 -9368.872899
48 0.590000 -119.950000 -5718.951172 -7959.810000 1963.080000 -9486.721020
49 0.711500 -123.010000 -5992.825684 -7934.010000 1756.790000 -9891.695604
50 0.701900 -123.970000 -5964.059570 -8020.510000 1803.900000 -9826.409036
51 0.643900 -121.370000 -5947.017090 -8077.790000 1776.210000 -9744.847177
52 0.603700 -112.910000 -5339.309570 -6929.770000 1850.750000 -8944.643526
53 0.766200 -127.460000 -6174.462402 -8763.940000 1878.570000 -10080.647806
54 0.385100 -116.770000 -5700.087402 -6973.400000 1534.300000 -9237.014921
55 0.607600 -121.920000 -5886.300781 -8010.780000 1684.650000 -9613.436539
56 0.631900 -126.810000 -6077.425293 -8112.460000 1509.430000 -9931.173443
57 0.653800 -128.250000 -6202.078125 -8375.730000 1808.200000 -10086.605821
58 0.646700 -119.080000 -5719.581055 -8138.200000 1670.340000 -9458.095035
59 0.742700 -123.440000 -6036.474121 -8513.160000 1769.110000 -9884.937690
60 0.642400 -115.640000 -5697.549316 -7360.730000 2020.930000 -9311.057622
61 0.712500 -127.150000 -6120.938477 -8523.200000 1375.740000 -9998.904792
62 0.695800 -120.570000 -5849.960938 -7714.640000 1812.130000 -9661.018005
63 0.693800 -124.820000 -6034.311523 -8155.490000 1753.450000 -9900.068454
64 0.618500 -124.720000 -6071.170898 -8115.080000 1735.220000 -9893.069820
65 0.602600 -123.100000 -5847.126953 -8075.730000 1875.740000 -9576.982558
66 0.569600 -123.110000 -5802.453125 -8309.160000 1766.760000 -9513.524582
67 0.730700 -128.630000 -6161.787109 -8597.620000 1489.590000 -10046.812753
68 0.763700 -126.690000 -6042.408691 -9207.150000 1663.110000 -9907.418092
69 0.621900 -118.060000 -5755.565430 -7393.500000 1945.660000 -9463.451790
70 0.635900 -119.300000 -5771.564941 -7556.500000 1778.390000 -9525.619317
71 0.708600 -118.710000 -5707.648926 -7918.070000 1864.990000 -9427.161071
72 0.635400 -122.830000 -5898.035156 -7830.430000 1900.080000 -9669.731349
73 0.658200 -120.770000 -5877.787109 -7610.190000 2015.910000 -9703.474852
74 0.612700 -123.090000 -5841.768555 -7883.280000 1659.320000 -9701.325019
75 0.597300 -120.540000 -5792.759277 -7579.520000 1741.570000 -9509.262397
76 0.674000 -121.310000 -5844.960938 -7741.020000 1749.540000 -9560.935677
77 0.613900 -123.140000 -5875.075195 -8254.230000 1920.890000 -9646.036398
78 0.748800 -125.100000 -6085.638184 -8386.660000 1804.220000 -9949.297924
79 0.683700 -118.680000 -5911.415039 -7680.460000 1823.020000 -9729.323489
80 0.656300 -124.970000 -5947.453125 -8364.950000 1851.650000 -9752.426967
81 0.688500 -124.170000 -6038.539551 -8792.980000 1750.580000 -9830.216419
82 0.724500 -127.860000 -6193.213867 -8965.870000 1449.090000 -10063.524286
83 0.786200 -127.180000 -6108.869629 -8471.740000 1838.750000 -9994.161799
84 0.680700 -125.200000 -6068.502930 -7895.180000 1836.380000 -9897.810498
85 0.741300 -126.190000 -6021.634277 -8361.820000 1764.370000 -9841.634217
86 0.644300 -122.560000 -5980.893066 -7588.320000 1766.450000 -9768.576794
87 0.590600 -116.350000 -5482.225098 -7525.780000 1730.910000 -9189.476817
88 0.612100 -129.410000 -6288.850098 -8206.760000 1649.840000 -10154.504583
89 0.703700 -121.750000 -5940.497070 -7939.660000 1982.990000 -9718.584159
90 0.669200 -119.670000 -5886.958008 -8362.800000 1688.400000 -9635.567715
91 0.634500 -122.540000 -5967.578125 -8129.790000 1529.240000 -9810.419529
92 0.666100 -123.710000 -6012.485840 -7874.010000 1981.050000 -9783.595094
93 0.742500 -124.830000 -5988.398438 -8455.790000 1660.870000 -9859.421217
94 0.679300 -123.240000 -6008.333984 -8292.750000 1712.320000 -9901.960625
95 0.760300 -126.950000 -6082.688965 -8628.050000 1670.060000 -9916.043716
96 0.640200 -121.430000 -5847.892090 -8195.190000 1796.240000 -9661.561498
97 0.629700 -122.440000 -5812.328613 -8276.000000 1977.330000 -9706.023098
98 0.713600 -123.350000 -5947.054688 -8415.600000 1772.820000 -9832.372664
99 0.786800 -123.090000 -5935.814453 -8105.060000 1869.960000 -9745.129873
100 0.594900 -128.980000 -6160.496094 -8370.800000 1873.850000 -10073.662301
