# num tmscore ddfire dope goap rf_ha_srs rwplus
1 0.590800 -154.140000 -7427.208984 -10388.360000 2630.330000 -12152.115557
2 0.572300 -149.740000 -7243.382324 -9996.820000 2527.120000 -11843.754650
3 0.715600 -155.140000 -7600.270020 -11152.870000 2344.940000 -12396.876108
4 0.577000 -151.000000 -7282.108887 -9851.250000 2435.310000 -11880.075394
5 0.516000 -151.200000 -7220.746582 -10276.730000 2430.890000 -11908.265965
6 0.466700 -148.910000 -7156.894531 -9689.820000 2672.180000 -11801.684885
7 0.549400 -150.350000 -7394.754883 -10141.320000 2407.960000 -12074.117565
8 0.364000 -136.050000 -6388.300293 -6913.830000 2846.180000 -10787.279774
9 0.452700 -140.380000 -6710.812500 -9131.150000 2517.360000 -11115.727410
10 0.527500 -148.630000 -7142.477051 -10030.000000 2662.630000 -11713.999839
11 0.535800 -152.710000 -7376.829590 -11006.170000 2518.170000 -12105.361852
12 0.605800 -149.930000 -7358.261719 -9970.010000 2609.380000 -12012.921386
13 0.580500 -149.370000 -7148.865234 -10080.800000 2444.750000 -11787.019558
14 0.562800 -154.260000 -7487.193359 -10674.100000 2550.210000 -12198.976992
15 0.619200 -149.740000 -7140.468262 -9981.120000 2500.080000 -11818.097499
16 0.499700 -146.560000 -7089.757324 -9256.390000 2751.960000 -11590.306639
17 0.498800 -148.710000 -7108.275391 -9381.620000 2775.820000 -11707.523572
18 0.528800 -141.040000 -6788.152832 -8690.860000 2942.410000 -11304.316815
19 0.565000 -154.930000 -7560.265625 -11081.310000 2395.470000 -12313.699540
20 0.422300 -137.490000 -6602.633789 -8627.830000 2458.560000 -11079.983329
21 0.591600 -153.660000 -7352.496094 -10953.390000 2537.120000 -12030.011792
22 0.373300 -137.590000 -6646.583496 -7777.580000 2997.390000 -11177.313277
23 0.461800 -144.030000 -6835.752441 -8226.440000 3151.610000 -11439.496534
24 0.560400 -148.570000 -7175.555176 -9302.220000 2423.200000 -11856.201400
25 0.481000 -139.560000 -6744.351074 -8477.770000 2577.470000 -11226.824471
26 0.548800 -147.790000 -7347.672363 -9606.070000 2470.360000 -12057.670801
27 0.449000 -151.040000 -7127.296875 -9899.470000 2509.430000 -11709.362861
28 0.632400 -156.410000 -7497.629395 -11121.490000 2358.520000 -12170.216350
29 0.381200 -135.010000 -6195.846680 -5648.580000 3332.820000 -10659.546214
30 0.506700 -144.520000 -6940.714844 -9015.740000 2926.020000 -11452.439769
31 0.441600 -139.860000 -6744.246582 -8447.720000 2591.290000 -11245.402521
32 0.430000 -145.680000 -7084.319824 -9348.990000 2634.310000 -11702.433095
33 0.677100 -155.620000 -7635.384766 -10974.570000 2442.190000 -12416.741928
34 0.366200 -129.770000 -6256.062012 -6195.170000 2749.750000 -10500.344633
35 0.518300 -150.070000 -7124.383789 -9224.140000 3104.710000 -11721.487190
36 0.307600 -157.940000 -7614.881836 -11062.300000 2418.280000 -12343.496294
37 0.345800 -133.980000 -6334.567871 -7322.180000 2682.800000 -10679.682569
38 0.478000 -148.860000 -7127.740723 -9765.340000 2657.880000 -11705.056016
39 0.527900 -154.640000 -7320.041992 -10469.420000 2594.230000 -11953.623053
40 0.388400 -137.080000 -6608.830078 -7714.370000 2527.990000 -11051.532945
41 0.706400 -155.990000 -7618.773438 -11205.390000 2360.070000 -12423.124236
42 0.502900 -139.960000 -6640.505859 -8145.230000 2631.070000 -11153.889159
43 0.535000 -150.980000 -7359.685547 -11022.300000 2854.420000 -12111.128304
44 0.576600 -153.430000 -7352.094238 -10162.070000 2571.220000 -12034.794214
45 0.515500 -145.300000 -7112.681152 -9425.260000 2678.750000 -11702.783437
46 0.538300 -152.590000 -7384.205078 -10545.540000 2517.650000 -12096.836223
47 0.335500 -137.180000 -6388.895996 -7083.760000 2997.670000 -10833.995249
48 0.623100 -148.700000 -7122.592285 -9428.880000 2752.350000 -11721.479450
49 0.479700 -142.030000 -6888.791016 -8502.690000 2819.780000 -11321.816987
50 0.554800 -146.870000 -7178.432617 -9735.620000 2528.190000 -11789.054601
51 0.418300 -142.670000 -7055.310059 -8275.090000 2414.060000 -11625.073975
52 0.481300 -140.390000 -6834.257324 -7940.110000 2794.110000 -11322.153295
53 0.371300 -145.450000 -6806.813477 -7732.350000 3082.400000 -11344.136569
54 0.600100 -152.170000 -7458.326172 -10538.350000 2717.700000 -12182.468670
55 0.390100 -146.620000 -6900.518066 -8128.060000 3008.740000 -11512.790539
56 0.567200 -147.890000 -7081.231445 -9718.820000 2761.950000 -11744.992247
57 0.416000 -145.110000 -6812.004883 -7737.280000 2945.440000 -11416.636321
58 0.474800 -144.990000 -7120.794922 -9567.360000 3149.500000 -11686.423181
59 0.575600 -142.870000 -6960.499023 -8775.430000 2698.730000 -11424.201628
60 0.395000 -142.570000 -6677.246094 -7499.460000 3004.670000 -11183.357353
61 0.450400 -143.450000 -7033.319336 -9201.200000 2333.740000 -11609.320639
62 0.532600 -147.440000 -7274.335449 -9793.560000 2622.840000 -11835.445113
63 0.386400 -141.950000 -6757.975586 -7689.580000 2716.950000 -11360.277710
64 0.499900 -148.570000 -7213.791016 -10096.120000 2708.160000 -11828.115530
65 0.512600 -146.510000 -7243.322754 -9447.350000 2726.470000 -11895.508590
66 0.445300 -138.300000 -6978.146973 -9505.730000 2508.750000 -11519.663857
67 0.519600 -144.070000 -6871.687500 -8057.550000 2979.450000 -11394.647107
68 0.465200 -154.030000 -7439.576660 -9252.090000 2794.970000 -12181.739093
69 0.377900 -134.450000 -6325.713867 -7535.000000 2745.740000 -10578.655131
70 0.617200 -153.610000 -7261.749023 -10562.470000 2658.780000 -11984.499318
71 0.561700 -148.770000 -7164.153320 -9627.350000 2714.940000 -11848.005463
72 0.542300 -145.210000 -7100.869629 -9328.470000 2444.190000 -11749.812448
73 0.425100 -133.410000 -6424.675781 -7236.920000 2726.330000 -10754.999697
74 0.449100 -148.760000 -6977.547363 -9253.050000 2713.250000 -11632.194554
75 0.685400 -158.700000 -7792.508789 -12047.030000 2431.060000 -12599.027187
76 0.615500 -152.980000 -7372.270508 -10301.500000 2485.590000 -12129.419450
77 0.344000 -136.750000 -6384.120117 -7438.040000 3186.080000 -10793.317676
78 0.409100 -142.060000 -6689.234863 -7027.130000 3074.740000 -11182.987961
79 0.368800 -130.780000 -6241.468750 -7092.170000 2876.340000 -10558.653708
80 0.425100 -143.320000 -6983.502930 -8928.060000 2551.320000 -11611.810674
81 0.574700 -152.970000 -7465.857910 -10049.220000 2394.570000 -12085.555296
82 0.412400 -141.560000 -6779.128418 -8397.010000 2759.050000 -11253.074595
83 0.445500 -142.090000 -6733.585938 -8502.760000 2647.310000 -11253.081981
84 0.352000 -138.090000 -6534.578125 -7945.580000 2747.470000 -10939.849971
85 0.369900 -140.340000 -6615.303711 -7406.070000 3168.870000 -11222.705838
86 0.515300 -156.290000 -7555.502441 -11411.610000 2444.870000 -12277.451176
87 0.313800 -138.530000 -6951.289551 -8767.190000 2419.990000 -11288.393081
88 0.574200 -145.720000 -6990.838379 -8929.020000 2946.410000 -11579.090777
89 0.456900 -152.680000 -7416.170898 -10731.810000 2276.030000 -12002.126329
90 0.425000 -141.150000 -6667.779297 -7885.150000 2717.390000 -11227.146870
91 0.674300 -153.200000 -7596.784668 -11081.840000 2389.460000 -12400.138203
92 0.392800 -133.190000 -6449.792969 -7813.330000 2750.870000 -10779.678858
93 0.401700 -142.040000 -6735.661133 -7177.100000 2808.230000 -11303.675692
94 0.587200 -152.430000 -7338.486328 -10444.320000 2350.050000 -11958.043010
95 0.464500 -145.610000 -6986.351562 -9618.050000 2709.180000 -11562.005488
96 0.422500 -135.100000 -6490.405762 -7542.420000 2649.710000 -10856.258465
97 0.415700 -144.390000 -6843.154297 -7922.890000 2832.110000 -11313.057611
98 0.463300 -150.260000 -7312.298828 -9325.910000 2454.280000 -11944.298539
99 0.368500 -143.180000 -7044.728027 -9282.270000 2351.730000 -11402.086129
100 0.563800 -145.250000 -7036.934082 -10091.280000 2638.820000 -11611.845461
